module gitlab.com/pleio/otel-server-demo

go 1.22.3

require (
	go.opentelemetry.io/contrib/instrumentation/net/http/otelhttp v0.52.0
	go.opentelemetry.io/otel v1.27.0
	go.opentelemetry.io/otel/exporters/otlp/otlpmetric/otlpmetricgrpc v1.27.0
	go.opentelemetry.io/otel/exporters/otlp/otlptrace v1.27.0
	go.opentelemetry.io/otel/exporters/otlp/otlptrace/otlptracegrpc v1.27.0
	go.opentelemetry.io/otel/metric v1.27.0
	go.opentelemetry.io/otel/sdk v1.27.0
	go.opentelemetry.io/otel/sdk/metric v1.27.0
	go.opentelemetry.io/otel/trace v1.27.0
)

require (
	github.com/cenkalti/backoff/v4 v4.3.0 // indirect
	github.com/felixge/httpsnoop v1.0.4 // indirect
	github.com/go-logr/logr v1.4.1 // indirect
	github.com/go-logr/stdr v1.2.2 // indirect
	github.com/grpc-ecosystem/grpc-gateway/v2 v2.20.0 // indirect
	go.opentelemetry.io/proto/otlp v1.2.0 // indirect
	golang.org/x/net v0.25.0 // indirect
	golang.org/x/sys v0.20.0 // indirect
	golang.org/x/text v0.15.0 // indirect
	google.golang.org/genproto/googleapis/api v0.0.0-20240520151616-dc85e6b867a5 // indirect
	google.golang.org/genproto/googleapis/rpc v0.0.0-20240515191416-fc5f0ca64291 // indirect
	google.golang.org/grpc v1.64.0 // indirect
	google.golang.org/protobuf v1.34.1 // indirect
)
